…
``` r
# We create a data frame called bigrams by calculating bigrams as we did before. We then use the tidyr function "separate" which breaks up our bigram based on spaces. We name the new variables "w1" and "w2". We then use the dyplr function "filter" to choose only the rows that either have "operation" assigned to w1 or w2.
bigrams <- mtsamples %>%
  unnest_ngrams(output = bigram, input = transcription, n = 2) %>%
  separate(bigram, into = c("w1", "w2"), sep = " ") %>%
  filter((w1 == "operation") | (w2 == "operation"))

# We take this data frame, which has w1 and w2 columns (one of which contains the word operation), and filter again for when w1 is "operation". We then use the dplyr function "select" to create a tibble of just w1 and w2. We then (dplyr) count the words in w2 and sort them on frequency. This finds all words that come after "operation".
bigrams %>%  
  filter(w1 == "operation") %>%
  select(w1, w2) %>%
  count(w2, sort = TRUE)
```

    ## # A tibble: 94 x 2
    ##    w2            n
    ##    <chr>     <int>
    ##  1 the         174
    ##  2 performed   159
    ##  3 1            46
    ##  4 in           25
    ##  5 right        22
    ##  6 was          22
    ##  7 after        20
    ##  8 bilateral    18
    ##  9 this         18
    ## 10 and          16
    ## # ... with 84 more rows

``` r
#The same as above, except now we find words before "operation". 
bigrams %>%  
  filter(w2 == "operation") %>%
  select(w1, w2) %>%
  count(w1, sort = TRUE)
```

    ## # A tibble: 129 x 2
    ##    w1           n
    ##    <chr>    <int>
    ##  1 of         226
    ##  2 the        129
    ##  3 for         73
    ##  4 this        13
    ##  5 re          12
    ##  6 norwood      9
    ##  7 same         9
    ##  8 cancer       7
    ##  9 mass         7
    ## 10 aneurysm     6
    ## # ... with 119 more rows
…
